Division,WeightClassKg,Place,Name,Team,BodyweightKg,Best3SquatKg,Best3BenchKg,Best3DeadliftKg,TotalKg,Equipment,Event,Sex
Boys,51.71,1,Anthony Phimmasone,Fort Worth Boswell,51.71,113.4,54.43,90.72,258.55,Single-ply,SBD,M
Boys,51.71,DQ,Nathan Sylakhom,Fort Worth Boswell,50.8,90.72,,,,Single-ply,SBD,M
Boys,55.79,1,Nolan Briggs,Fort Worth Boswell,54.52,102.06,58.97,102.06,263.08,Single-ply,SBD,M
Boys,55.79,2,Kyler Tucker,Azle,55.25,92.99,49.9,86.18,229.06,Single-ply,SBD,M
Boys,59.87,1,Preston Whaley,Fort Worth Chisholm Trail,59.87,136.08,81.65,142.88,360.61,Single-ply,SBD,M
Boys,59.87,2,Alex Simmions,Azle,58.29,136.08,83.91,133.81,353.8,Single-ply,SBD,M
Boys,59.87,3,Colt Edwards,Fort Worth Boswell,59.78,97.52,68.04,117.93,283.5,Single-ply,SBD,M
Boys,59.87,4,Jack Fry,Fort Worth Boswell,59.51,106.59,61.23,106.59,274.42,Single-ply,SBD,M
Boys,67.13,1,Garrett Wright,Fort Worth Boswell,65.14,158.76,95.25,161.03,415.04,Single-ply,SBD,M
Boys,67.13,2,Collin Biggers,Fort Worth Boswell,67.13,140.61,81.65,142.88,365.14,Single-ply,SBD,M
Boys,67.13,3,Edwin Hayden,Fort Worth Boswell,65.41,145.15,74.84,117.93,337.93,Single-ply,SBD,M
Boys,67.13,4,Isaac Enrich,Fort Worth Chisholm Trail,64.32,90.72,83.91,136.08,310.71,Single-ply,SBD,M
Boys,67.13,5,Matthew Davis #2,Fort Worth Boswell,65.68,83.91,52.16,106.59,242.67,Single-ply,SBD,M
Boys,67.13,DQ,Shawn Holton,Fort Worth Chisholm Trail,66.59,127.01,,131.54,,Single-ply,SBD,M
Boys,67.13,DQ,Anthony Valdez,Azle,64.41,83.91,,88.45,,Single-ply,SBD,M
Boys,74.84,1,Jordan McNeely,Azle,74.71,188.24,111.13,195.04,494.42,Single-ply,SBD,M
Boys,74.84,2,Julius Schneider,Azle,73.71,158.76,90.72,149.69,399.16,Single-ply,SBD,M
Boys,74.84,3,Michael Weiss,Azle,74.39,113.4,81.65,117.93,312.98,Single-ply,SBD,M
Boys,74.84,4,Paul Epwright,Fort Worth Chisholm Trail,68.36,97.52,77.11,136.08,310.71,Single-ply,SBD,M
Boys,74.84,DQ,Cody Mayberry,Fort Worth Chisholm Trail,68.63,104.33,,,,Single-ply,SBD,M
Boys,82.1,1,Cameron Harmon,Azle,80.92,183.7,115.67,181.44,480.81,Single-ply,SBD,M
Boys,82.1,2,Joshua Mork,Fort Worth Boswell,79.51,167.83,115.67,183.7,467.2,Single-ply,SBD,M
Boys,82.1,3,Frank Chew,Fort Worth Chisholm Trail,79.02,174.63,90.72,192.78,458.13,Single-ply,SBD,M
Boys,82.1,4,Collin Reyes,Fort Worth Chisholm Trail,82.05,154.22,106.59,183.7,444.52,Single-ply,SBD,M
Boys,82.1,5,Gamble Moore,Azle,81.74,158.76,97.52,176.9,433.18,Single-ply,SBD,M
Boys,82.1,6,Jared Wheeler #2,Azle,82.05,142.88,108.86,172.37,424.11,Single-ply,SBD,M
Boys,82.1,7,Caleb Genberg,Fort Worth Boswell,79.61,149.69,104.33,142.88,396.89,Single-ply,SBD,M
Boys,82.1,8,Jay'Quan Jamerson,Fort Worth Chisholm Trail,79.29,124.74,102.06,158.76,385.55,Single-ply,SBD,M
Boys,82.1,9,Hayden Davidson,Azle,77.29,147.42,72.57,142.88,362.87,Single-ply,SBD,M
Boys,82.1,DQ,Christian Martin,Fort Worth Chisholm Trail,81.1,136.08,,147.42,,Single-ply,SBD,M
Boys,89.81,1,Keyshawn Gbanqui,Fort Worth Chisholm Trail,88.41,192.78,124.74,215.46,532.97,Single-ply,SBD,M
Boys,89.81,2,Max Miller,Fort Worth Chisholm Trail,88.95,156.49,106.59,154.22,417.3,Single-ply,SBD,M
Boys,89.81,3,Hollan Morris,Fort Worth Boswell,87.63,147.42,92.99,174.63,415.04,Single-ply,SBD,M
Boys,89.81,4,Jay Garcia,Fort Worth Boswell,89.72,156.49,81.65,161.03,399.16,Single-ply,SBD,M
Boys,89.81,5,Brodie Doherty,Azle,87.63,113.4,90.72,172.37,376.48,Single-ply,SBD,M
Boys,99.79,1,Travis Williams,Fort Worth Chisholm Trail,99.38,210.92,142.88,217.72,571.53,Single-ply,SBD,M
Boys,99.79,2,Jameel Mainor,Fort Worth Chisholm Trail,91.53,201.85,127.01,208.65,537.51,Single-ply,SBD,M
Boys,99.79,3,Will Humphrey,Fort Worth Boswell,99.25,188.24,106.59,174.63,469.47,Single-ply,SBD,M
Boys,99.79,4,Michael Pollard,Fort Worth Boswell,99.25,185.97,92.99,167.83,446.79,Single-ply,SBD,M
Boys,99.79,5,Tarrance Ware,Fort Worth Chisholm Trail,92.12,149.69,102.06,183.7,435.45,Single-ply,SBD,M
Boys,99.79,6,Hayden Hall,Fort Worth Boswell,97.16,158.76,104.33,170.1,433.18,Single-ply,SBD,M
Boys,99.79,7,Zach Lowe,Fort Worth Boswell,93.62,165.56,77.11,154.22,396.89,Single-ply,SBD,M
Boys,99.79,8,Jonathan Lester,Azle,92.99,142.88,90.72,136.08,369.68,Single-ply,SBD,M
Boys,99.79,DQ,Christian Redd,Azle,92.44,120.2,,142.88,,Single-ply,SBD,M
Boys,109.77,1,Tyler Jensen,Azle,103.19,210.92,131.54,172.37,514.83,Single-ply,SBD,M
Boys,109.77,2,Kyrese McFarland,Fort Worth Boswell,101.88,192.78,115.67,181.44,489.88,Single-ply,SBD,M
Boys,109.77,3,Trey Glasker,Fort Worth Chisholm Trail,103.01,147.42,102.06,172.37,421.84,Single-ply,SBD,M
Boys,109.77,4,Ryan Morales,Fort Worth Boswell,104.33,149.69,83.91,167.83,401.43,Single-ply,SBD,M
Boys,109.77,5,Marvin Lopez,Fort Worth Chisholm Trail,109.32,142.88,90.72,158.76,392.36,Single-ply,SBD,M
Boys,109.77,6,Clay Osteen,Fort Worth Boswell,104.6,124.74,74.84,149.69,349.27,Single-ply,SBD,M
Boys,109.77,7,Gilbert Arroyo,Fort Worth Chisholm Trail,105.78,124.74,61.23,142.88,328.85,Single-ply,SBD,M
Boys,124.74,1,Andrew Lutz,Azle,121.74,240.4,138.35,181.44,560.19,Single-ply,SBD,M
Boys,124.74,2,Max Michaels,Fort Worth Boswell,117.93,195.04,122.47,183.7,501.22,Single-ply,SBD,M
Boys,124.74,3,Kyle Lowe,Fort Worth Boswell,116.94,176.9,113.4,183.7,474,Single-ply,SBD,M
Boys,124.74,4,Dorian Evans,Azle,124.06,136.08,72.57,142.88,351.53,Single-ply,SBD,M
Boys,124.74,5,Vincent Perez,Fort Worth Chisholm Trail,116.17,129.27,61.23,158.76,349.27,Single-ply,SBD,M
Boys,124.74,DQ,Sebastian Saucedo,Fort Worth Chisholm Trail,117.44,124.74,,129.27,,Single-ply,SBD,M
Boys,124.74+,1,Jake Allsbrooks,Fort Worth Boswell,144.24,294.84,147.42,197.31,639.57,Single-ply,SBD,M
Boys,124.74+,2,Rylan Smith,Azle,135.17,224.53,117.93,183.7,526.17,Single-ply,SBD,M
Boys,124.74+,3,Max Dunn,Fort Worth Chisholm Trail,128.46,174.63,122.47,181.44,478.54,Single-ply,SBD,M
Boys,124.74+,4,Joseph Olmos,Fort Worth Chisholm Trail,129.91,197.31,102.06,174.63,474,Single-ply,SBD,M
