Division,WeightClassKg,Place,Name,Team,BodyweightKg,Best3SquatKg,Best3BenchKg,Best3DeadliftKg,TotalKg,Equipment,Event,Sex
Boys,51.71,1,Anthony Garcia,Weslaco,51.71,158.76,104.33,183.7,446.79,Single-ply,SBD,M
Boys,51.71,2,Leo Martinez,Rio Grande City,51.03,124.74,92.99,133.81,351.53,Single-ply,SBD,M
Boys,51.71,3,Cody Acosta,PSJA,47.26,113.4,65.77,129.27,308.44,Single-ply,SBD,M
Boys,51.71,4,Gilbert Gonzalez,Edinburg Vela,47.76,131.54,79.38,97.52,308.44,Single-ply,SBD,M
Boys,51.71,5,Jesus Puente,La Joya Palmview,46.81,92.99,52.16,154.22,299.37,Single-ply,SBD,M
Boys,51.71,6,Fernando Gonzalez,McAllen Memorial,49.35,90.72,68.04,127.01,285.76,Single-ply,SBD,M
Boys,51.71,7,Tommy Livigni,McAllen Memorial,49.31,45.36,31.75,49.9,127.01,Single-ply,SBD,M
Boys,51.71,DQ,Anthony Ramirez,Edinburg North,50.53,90.72,,,,Single-ply,SBD,M
Boys,55.79,1,Joshua Morin,PSJA North,55.79,170.1,113.4,181.44,464.93,Single-ply,SBD,M
Boys,55.79,2,Tyler Salazar,Donna,55.79,167.83,95.25,170.1,433.18,Single-ply,SBD,M
Boys,55.79,3,Benito Olivarez,Edcouch-Elsa,55.79,142.88,90.72,158.76,392.36,Single-ply,SBD,M
Boys,55.79,4,Jeremy Solis,Edinburg Vela,55.79,129.27,74.84,151.95,356.07,Single-ply,SBD,M
Boys,55.79,5,Victor Vidal,Pharr Valley View,55.79,104.33,56.7,127.01,288.03,Single-ply,SBD,M
Boys,59.87,1,Miguel Toval,Donna North,59.87,167.83,83.91,183.7,435.45,Single-ply,SBD,M
Boys,59.87,2,Marcus Silva,McAllen Memorial,58.2,149.69,88.45,174.63,412.77,Single-ply,SBD,M
Boys,59.87,3,Ismael Talamante,Rio Grande City,56.7,124.74,86.18,140.61,351.53,Single-ply,SBD,M
Boys,59.87,4,Javier Renteria,Edinburg North,59.87,131.54,79.38,140.61,351.53,Single-ply,SBD,M
Boys,59.87,5,Stanley Davis,McAllen Memorial,56.34,113.4,74.84,124.74,312.98,Single-ply,SBD,M
Boys,59.87,6,Michael Garcia #12,Edinburg Vela,58.74,113.4,63.5,129.27,306.17,Single-ply,SBD,M
Boys,59.87,7,Ruben D Saenz III,McAllen Rowe,58.65,113.4,70.31,120.2,303.91,Single-ply,SBD,M
Boys,59.87,DQ,Justin Berner,Edinburg North,59.83,147.42,86.18,,,Single-ply,SBD,M
Boys,59.87,DQ,Demetrio Guerrero,Edinburg,59.87,,,,,Single-ply,SBD,M
Boys,67.13,1,Abraham Hernandez,La Joya Palmview,64,231.33,92.99,249.48,573.79,Single-ply,SBD,M
Boys,67.13,2,Jacob Pina,La Joya Palmview,66.68,190.51,113.4,204.12,508.02,Single-ply,SBD,M
Boys,67.13,3,Ricky Ortiz #1,Edcouch-Elsa,62.96,197.31,92.99,199.58,489.88,Single-ply,SBD,M
Boys,67.13,4,Angel Sandoval,Donna North,65.32,179.17,99.79,195.04,474,Single-ply,SBD,M
Boys,67.13,5,Joe Ramirez,Edinburg Vela,66,181.44,102.06,185.97,469.47,Single-ply,SBD,M
Boys,67.13,6,Leo Cuellar,Pharr Valley View,67.09,170.1,111.13,176.9,458.13,Single-ply,SBD,M
Boys,67.13,7,Moses Olivarez,McAllen Memorial,64.77,170.1,111.13,167.83,449.06,Single-ply,SBD,M
Boys,67.13,8,Hugo Gomez,Edinburg North,65.63,158.76,113.4,158.76,430.91,Single-ply,SBD,M
Boys,67.13,9,Omar Solis,Weslaco,66.81,151.95,97.52,181.44,430.91,Single-ply,SBD,M
Boys,67.13,10,Marcos Chavez,Donna,65.32,170.1,90.72,167.83,428.64,Single-ply,SBD,M
Boys,67.13,11,Ricardo Pena #1,Rio Grande City,67.04,145.15,111.13,165.56,421.84,Single-ply,SBD,M
Boys,67.13,12,Chris Rios,Rio Grande City,64.5,167.83,102.06,142.88,412.77,Single-ply,SBD,M
Boys,67.13,13,Daniel Mireles,PSJA Memorial,67.13,158.76,92.99,158.76,410.5,Single-ply,SBD,M
Boys,67.13,14,Carlos Coronado,Edinburg North,65.86,136.08,99.79,163.29,399.16,Single-ply,SBD,M
Boys,67.13,15,Jose Soto,Edinburg Economedes,62.82,174.63,92.99,102.06,369.68,Single-ply,SBD,M
Boys,67.13,16,Brian Tejada #1,Edinburg,62.41,142.88,88.45,133.81,365.14,Single-ply,SBD,M
Boys,67.13,17,Edgar Conde,Pharr Valley View,66.63,111.13,65.77,142.88,319.78,Single-ply,SBD,M
Boys,67.13,DQ,Aron Garcia,PSJA North,65.95,,,,,Single-ply,SBD,M
Boys,74.84,1,Jorge Almanza,Edinburg Economedes,73.71,226.8,140.61,229.06,596.47,Single-ply,SBD,M
Boys,74.84,2,Francisco Marin,Weslaco,70.85,226.8,136.08,229.06,591.94,Single-ply,SBD,M
Boys,74.84,3,Jaziah Escamilla,McAllen Memorial,73.62,213.19,142.88,219.99,576.06,Single-ply,SBD,M
Boys,74.84,4,Adam Walle,Edcouch-Elsa,74.3,213.19,122.47,215.46,551.11,Single-ply,SBD,M
Boys,74.84,5,Joshua De La Cerda,Weslaco,74.75,204.12,131.54,204.12,539.77,Single-ply,SBD,M
Boys,74.84,6,Roman Villarreal,McAllen Rowe,74.12,188.24,138.35,190.51,517.1,Single-ply,SBD,M
Boys,74.84,7,Julian Hernandez,McAllen Memorial,74.3,185.97,124.74,188.24,498.95,Single-ply,SBD,M
Boys,74.84,8,Santiago Zuniga,PSJA North,73.35,172.37,131.54,181.44,485.34,Single-ply,SBD,M
Boys,74.84,9,Jonathon Casarez,Rio Grande City,68.58,172.37,115.67,183.7,471.74,Single-ply,SBD,M
Boys,74.84,10,Julio Bautista,Edinburg Economedes,68.31,151.95,102.06,174.63,428.64,Single-ply,SBD,M
Boys,74.84,11,Victor Silva,Rio Grande City,71.3,124.74,111.13,181.44,417.3,Single-ply,SBD,M
Boys,74.84,12,Armando Ayala,Pharr Valley View,69.99,154.22,90.72,158.76,403.7,Single-ply,SBD,M
Boys,74.84,13,Jonas Ortiz,McAllen Rowe,73.94,136.08,83.91,147.42,367.41,Single-ply,SBD,M
Boys,74.84,14,Gavin De La Vina,Edinburg Vela,70.72,133.81,70.31,151.95,356.07,Single-ply,SBD,M
Boys,74.84,15,Michael Cantu,Edinburg North,74.84,90.72,88.45,129.27,308.44,Single-ply,SBD,M
Boys,74.84,16,Luis Cuellar,Pharr Valley View,73.44,102.06,74.84,129.27,306.17,Single-ply,SBD,M
Boys,74.84,DQ,Mike Lopez #2,Edinburg,73.48,195.04,,,,Single-ply,SBD,M
Boys,74.84,DQ,Arath Martinez,Donna North,73.48,181.44,,,,Single-ply,SBD,M
Boys,82.1,1,Ulysses Vasquez,McAllen Memorial,81.06,197.31,145.15,215.46,557.92,Single-ply,SBD,M
Boys,82.1,2,Bryan Leal,Weslaco,81.51,208.65,129.27,213.19,551.11,Single-ply,SBD,M
Boys,82.1,3,Joel Pina,La Joya Palmview,79.15,204.12,124.74,219.99,548.85,Single-ply,SBD,M
Boys,82.1,4,Adrian Vargas,Edinburg,81.06,183.7,142.88,181.44,508.02,Single-ply,SBD,M
Boys,82.1,5,James Champion,Edinburg,81.6,192.78,131.54,181.44,505.76,Single-ply,SBD,M
Boys,82.1,6,Jesse Garza #4,Edcouch-Elsa,78.47,195.04,122.47,181.44,498.95,Single-ply,SBD,M
Boys,82.1,7,Daniel Carrillo,PSJA North,80.56,192.78,120.2,183.7,496.68,Single-ply,SBD,M
Boys,82.1,8,Miguel Morones,Edcouch-Elsa,78.15,188.24,108.86,183.7,480.81,Single-ply,SBD,M
Boys,82.1,9,Gabriel Tijerina,PSJA,80.01,183.7,102.06,181.44,467.2,Single-ply,SBD,M
Boys,82.1,10,Mauro Arriata,Edinburg,80.56,158.76,106.59,188.24,453.59,Single-ply,SBD,M
Boys,82.1,11,Andrew Solis,Edinburg Vela,77.88,163.29,115.67,170.1,449.06,Single-ply,SBD,M
Boys,82.1,12,Juan Sanchez #6,Edinburg North,82.1,161.03,102.06,156.49,419.57,Single-ply,SBD,M
Boys,82.1,13,Justin Bueno,Edinburg,82.1,142.88,88.45,163.29,394.63,Single-ply,SBD,M
Boys,82.1,DQ,Angel Mendez #1,Edinburg,81.06,240.4,,,,Single-ply,SBD,M
Boys,82.1,DQ,Angel Lopez #2,Donna North,81.19,,,,,Single-ply,SBD,M
Boys,82.1,DQ,Leo Lopez,Edinburg North,80.01,,,,,Single-ply,SBD,M
Boys,89.81,1,Ernesto Preciado,Pharr Valley View,89.27,231.33,145.15,224.53,601.01,Single-ply,SBD,M
Boys,89.81,2,Edgar Arevalo,Edinburg,89.81,204.12,138.35,226.8,569.26,Single-ply,SBD,M
Boys,89.81,3,Alex Cuevas #3,Edinburg Economedes,87.68,188.24,136.08,226.8,551.11,Single-ply,SBD,M
Boys,89.81,4,Dylan Earhart,McAllen Memorial,87.5,215.46,124.74,208.65,548.85,Single-ply,SBD,M
Boys,89.81,5,Aldaberto Segura,Edinburg,84.19,208.65,122.47,213.19,544.31,Single-ply,SBD,M
Boys,89.81,6,Carlo Vargas,Donna North,84.37,192.78,115.67,233.6,542.04,Single-ply,SBD,M
Boys,89.81,7,Emmanuel Palomin,Weslaco,84.69,204.12,131.54,195.04,530.7,Single-ply,SBD,M
Boys,89.81,8,Juan Rojas,Donna,84.01,201.85,111.13,199.58,512.56,Single-ply,SBD,M
Boys,89.81,9,Hector Palencia,Donna,89.36,217.72,95.25,190.51,503.49,Single-ply,SBD,M
Boys,89.81,10,Pedro Carpio,PSJA North,89.58,195.04,124.74,183.7,503.49,Single-ply,SBD,M
Boys,89.81,11,Behran Calderini,Edinburg North,88.59,197.31,108.86,195.04,501.22,Single-ply,SBD,M
Boys,89.81,12,Alex Zuniga,Edinburg Economedes,87.95,204.12,111.13,183.7,498.95,Single-ply,SBD,M
Boys,89.81,13,Diego Moreno,Edinburg Vela,89.81,183.7,104.33,204.12,492.15,Single-ply,SBD,M
Boys,89.81,14,Cain Rodriguez,PSJA,89.49,183.7,117.93,188.24,489.88,Single-ply,SBD,M
Boys,89.81,15,Joe Ramirez,Donna,82.64,183.7,113.4,183.7,480.81,Single-ply,SBD,M
Boys,89.81,16,Edgar Castillo,McAllen Rowe,86.27,179.17,108.86,188.24,476.27,Single-ply,SBD,M
Boys,89.81,17,Jose Vera,PSJA,88.31,185.97,111.13,174.63,471.74,Single-ply,SBD,M
Boys,89.81,18,Humberto Martinez,Edinburg North,89.4,183.7,72.57,204.12,460.4,Single-ply,SBD,M
Boys,89.81,19,Gabriel Salinas,Donna,83.6,192.78,92.99,170.1,455.86,Single-ply,SBD,M
Boys,89.81,20,Brandon Vega,Edinburg North,89.36,161.03,113.4,181.44,455.86,Single-ply,SBD,M
Boys,89.81,21,Uriel Aguilar,Pharr Valley View,88.27,197.31,102.06,154.22,453.59,Single-ply,SBD,M
Boys,89.81,22,Sonny Mosqueda,Edinburg North,86.95,163.29,83.91,181.44,428.64,Single-ply,SBD,M
Boys,89.81,23,Dominic Galvan,Edinburg Economedes,86.73,156.49,102.06,147.42,405.97,Single-ply,SBD,M
Boys,89.81,DQ,Jose Quintero,McAllen Rowe,88.13,,,,,Single-ply,SBD,M
Boys,89.81,DQ,Trae Caballero,Weslaco,89.58,,,,,Single-ply,SBD,M
Boys,89.81,DQ,Joel Garcia,Pharr Valley View,88.45,226.8,,,,Single-ply,SBD,M
Boys,99.79,1,Noah Cisneros,McAllen Memorial,99.38,238.14,154.22,219.99,612.35,Single-ply,SBD,M
Boys,99.79,2,Osvaldo Gomez,Edinburg Economedes,97.07,226.8,154.22,226.8,607.81,Single-ply,SBD,M
Boys,99.79,3,Caleb Zerato,PSJA Memorial,99.47,249.48,108.86,226.8,585.13,Single-ply,SBD,M
Boys,99.79,4,Julio Cardona,Edcouch-Elsa,95.66,233.6,151.95,188.24,573.79,Single-ply,SBD,M
Boys,99.79,5,Isaac Cerda,Donna North,98.88,226.8,136.08,206.38,569.26,Single-ply,SBD,M
Boys,99.79,6,Josh Hernandez,Donna,99.79,249.48,122.47,190.51,562.45,Single-ply,SBD,M
Boys,99.79,7,Omar Lopez,PSJA North,94.89,195.04,145.15,210.92,551.11,Single-ply,SBD,M
Boys,99.79,8,Juan Flores,PSJA,95.8,222.26,136.08,192.78,551.11,Single-ply,SBD,M
Boys,99.79,9,Ernesto Tijerina,Edinburg Economedes,95.48,197.31,136.08,213.19,546.58,Single-ply,SBD,M
Boys,99.79,10,Eddie Garza,Rio Grande City,99.02,188.24,131.54,201.85,521.63,Single-ply,SBD,M
Boys,99.79,11,Ivan Gaytan,Edinburg,98.47,197.31,142.88,174.63,514.83,Single-ply,SBD,M
Boys,99.79,12,Isaac Rangel,Donna,90.99,217.72,102.06,192.78,512.56,Single-ply,SBD,M
Boys,99.79,13,Isaac de Anda,Edcouch-Elsa,99.61,204.12,106.59,199.58,510.29,Single-ply,SBD,M
Boys,99.79,14,Eloy Lopez,Edinburg North,98.97,190.51,106.59,208.65,505.76,Single-ply,SBD,M
Boys,99.79,15,JJ Barrientes,PSJA,99.79,185.97,115.67,199.58,501.22,Single-ply,SBD,M
Boys,99.79,16,Ryan Perales,Donna,90.9,192.78,120.2,170.1,483.08,Single-ply,SBD,M
Boys,99.79,17,Agustin Villegas,Edinburg Economedes,92.99,174.63,102.06,199.58,476.27,Single-ply,SBD,M
Boys,99.79,18,Dionicio Garza,Edinburg,92.85,165.56,115.67,174.63,455.86,Single-ply,SBD,M
Boys,99.79,19,Moy Vazaldua,PSJA,94.66,156.49,83.91,156.49,396.89,Single-ply,SBD,M
Boys,99.79,20,Gilbert Cerda,Edinburg Vela,92.26,147.42,88.45,136.08,371.95,Single-ply,SBD,M
Boys,109.77,1,Gus Silva,Donna,107.86,285.76,154.22,235.87,675.85,Single-ply,SBD,M
Boys,109.77,2,Marcos Garza,Edinburg Economedes,106.64,254.01,156.49,247.21,657.71,Single-ply,SBD,M
Boys,109.77,3,Oscar Juarez,Edinburg,109.13,258.55,181.44,215.46,655.44,Single-ply,SBD,M
Boys,109.77,4,Freddy Valdez,Edinburg,104.37,235.87,156.49,256.28,648.64,Single-ply,SBD,M
Boys,109.77,5,Jarome Torres,McAllen Memorial,108.27,233.6,154.22,215.46,603.28,Single-ply,SBD,M
Boys,109.77,6,Aaron Vasquez,Edcouch-Elsa,102.33,226.8,142.88,217.72,587.4,Single-ply,SBD,M
Boys,109.77,7,Miguel Perales,Donna North,101.6,210.92,147.42,197.31,555.65,Single-ply,SBD,M
Boys,109.77,8,Kike Guajardo,Pharr Valley View,107.18,210.92,115.67,185.97,512.56,Single-ply,SBD,M
Boys,109.77,9,Angel Gutierrez,Pharr Valley View,105.82,199.58,108.86,181.44,489.88,Single-ply,SBD,M
Boys,109.77,10,Derwin Salinas,Edinburg North,103.74,174.63,113.4,185.97,474,Single-ply,SBD,M
Boys,109.77,11,Louis Rodriguez,Edinburg,109.77,188.24,108.86,174.63,471.74,Single-ply,SBD,M
Boys,109.77,12,Jose Tovar,PSJA Memorial,101.56,174.63,120.2,170.1,464.93,Single-ply,SBD,M
Boys,109.77,13,Norberto Salinas,McAllen Rowe,103.6,149.69,124.74,176.9,451.32,Single-ply,SBD,M
Boys,109.77,14,David Garza,Edinburg Vela,108.59,170.1,90.72,176.9,437.72,Single-ply,SBD,M
Boys,109.77,DQ,Aaron Garza,Edinburg,109.23,,,,,Single-ply,SBD,M
Boys,109.77,DQ,Alejandro Trevino,PSJA Memorial,107,183.7,127.01,,,Single-ply,SBD,M
Boys,124.74,1,Fabian Castillo,Edinburg Economedes,121.74,290.3,188.24,272.16,750.7,Single-ply,SBD,M
Boys,124.74,2,Cody Alvarado,Edcouch-Elsa,110.95,258.55,158.76,249.48,666.78,Single-ply,SBD,M
Boys,124.74,3,Jorge Soto,Edcouch-Elsa,117.48,260.82,179.17,226.8,666.78,Single-ply,SBD,M
Boys,124.74,4,Andres Zuniga,PSJA North,121.2,263.08,174.63,222.26,659.98,Single-ply,SBD,M
Boys,124.74,5,Luis Salinas,Rio Grande City,119.43,229.06,158.76,242.67,630.49,Single-ply,SBD,M
Boys,124.74,6,Robert Perez,Weslaco,122.24,240.4,142.88,206.38,589.67,Single-ply,SBD,M
Boys,124.74,7,Fernando Robles,Rio Grande City,110.54,215.46,131.54,235.87,582.87,Single-ply,SBD,M
Boys,124.74,8,Austin Cardenas,Weslaco,118.16,226.8,131.54,199.58,557.92,Single-ply,SBD,M
Boys,124.74,9,Miguel Rodriguez,Edcouch-Elsa,114.4,226.8,124.74,188.24,539.77,Single-ply,SBD,M
Boys,124.74,10,Adrian Fuentes,Weslaco,111.22,206.38,104.33,215.46,526.17,Single-ply,SBD,M
Boys,124.74,11,Fernando Mata,Donna,122.47,204.12,124.74,190.51,519.36,Single-ply,SBD,M
Boys,124.74,12,Leroy Carrizalez,PSJA Memorial,114.12,190.51,106.59,185.97,483.08,Single-ply,SBD,M
Boys,124.74,13,Gerano Cantu,Pharr Valley View,114.49,183.7,102.06,156.49,442.25,Single-ply,SBD,M
Boys,124.74,DQ,Sergio Reyna,McAllen Memorial,115.98,,,,,Single-ply,SBD,M
Boys,124.74+,1,Michael Vega,McAllen Rowe,141.25,278.96,206.38,226.8,712.14,Single-ply,SBD,M
Boys,124.74+,2,Nelson Carrillo,Edinburg,128.96,265.35,145.15,192.78,603.28,Single-ply,SBD,M
Boys,124.74+,3,Moises Morales,La Joya Palmview,130.5,215.46,117.93,215.46,548.85,Single-ply,SBD,M
Boys,124.74+,4,Marco Rangel,La Joya Palmview,158.35,199.58,136.08,204.12,539.77,Single-ply,SBD,M
Boys,124.74+,5,David Chapa,PSJA,130.18,199.58,108.86,195.04,503.49,Single-ply,SBD,M
Boys,124.74+,6,Saucedo Francisco,PSJA North,135.44,199.58,115.67,188.24,503.49,Single-ply,SBD,M
Boys,124.74+,7,Jose Vaquera,PSJA Memorial,144.47,192.78,95.25,183.7,471.74,Single-ply,SBD,M
Boys,124.74+,8,Valentine Lopez,PSJA Memorial,149.23,163.29,120.2,172.37,455.86,Single-ply,SBD,M
Boys,124.74+,DQ,Jose Marquez,Edinburg,162.66,,,,,Single-ply,SBD,M
Boys,124.74+,DQ,Jordan Muller,PSJA Memorial,148.55,,,,,Single-ply,SBD,M
Boys,124.74+,DQ,Leo Lozano,Pharr Valley View,128,142.88,,,,Single-ply,SBD,M
