Division,WeightClassKg,Place,Name,Team,BodyweightKg,Best3SquatKg,Best3BenchKg,Best3DeadliftKg,TotalKg,Equipment,Event,Sex
Boys,55.79,1,JT White,Cedar Hill,51.8,147.42,70.31,179.17,396.89,Single-ply,SBD,M
Boys,51.71,2,Dominique John,Mansfield Summit,50.89,140.61,77.11,176.9,394.63,Single-ply,SBD,M
Boys,51.71,3,Dominique Moreland,Mansfield Summit,51.44,136.08,70.31,145.15,351.53,Single-ply,SBD,M
Boys,51.71,4,Michael Dixon,Mansfield,48.53,127.01,72.57,131.54,331.12,Single-ply,SBD,M
Boys,51.71,5,Shafiq Asmaty,Kennedale,50.98,102.06,58.97,102.06,263.08,Single-ply,SBD,M
Boys,51.71,6,Dylan Hooper,Oakridge School,50.89,97.52,49.9,102.06,249.48,Single-ply,SBD,M
Boys,51.71,7,Mohammed Ali #2,Mansfield Timberview,44.91,90.72,45.36,99.79,235.87,Single-ply,SBD,M
Boys,51.71,8,Brennan Morrell,Mansfield Legacy,48.08,81.65,52.16,95.25,229.06,Single-ply,SBD,M
Boys,59.87,1,Derrick Dawn,Cedar Hill,55.88,154.22,106.59,192.78,453.59,Single-ply,SBD,M
Boys,59.87,2,Blake Mirowitz,Red Oak,55.88,170.1,86.18,183.7,439.98,Single-ply,SBD,M
Boys,55.79,3,Jon Mora,Bishop Lynch,54.7,158.76,81.65,170.1,410.5,Single-ply,SBD,M
Boys,55.79,4,Peyton Adkins,Midlothian,55.07,156.49,88.45,156.49,401.43,Single-ply,SBD,M
Boys,55.79,5,Jeston England,Mansfield,52.62,136.08,90.72,140.61,367.41,Single-ply,SBD,M
Boys,55.79,6,Kevin Huynh,Kennedale,54.88,136.08,65.77,149.69,351.53,Single-ply,SBD,M
Boys,55.79,7,Connor Buttgen,Midlothian,54.88,133.81,65.77,136.08,335.66,Single-ply,SBD,M
Boys,55.79,8,Kevin Henry,Mansfield,53.34,111.13,77.11,136.08,324.32,Single-ply,SBD,M
Boys,59.87,9,Chris Hernandez,Duncanville,55.97,102.06,79.38,142.88,324.32,Single-ply,SBD,M
Boys,55.79,10,Chad Williams,South Grand Prairie,55.34,117.93,74.84,120.2,312.98,Single-ply,SBD,M
Boys,55.79,11,Aditya Misra,Oakridge School,54.43,115.67,65.77,124.74,306.17,Single-ply,SBD,M
Boys,55.79,12,Bryce Meriman,Everman,55.61,83.91,52.16,102.06,238.14,Single-ply,SBD,M
Boys,55.79,DQ,Ashton Williams,Everman,53.61,,,,,Single-ply,SBD,M
Boys,59.87,1,Clarington Lightfoot,Everman,59.69,215.46,117.93,192.78,526.17,Single-ply,SBD,M
Boys,59.87,2,Sean Guinyard,Kennedale,59.87,188.24,102.06,181.44,471.74,Single-ply,SBD,M
Boys,59.87,3,Zack Fain,Cedar Hill,56.61,179.17,97.52,188.24,464.93,Single-ply,SBD,M
Boys,59.87,4,Larkin Alexander,Waxahachie,59.78,170.1,117.93,170.1,458.13,Single-ply,SBD,M
Boys,59.87,5,AmonTah Settle,Mansfield Summit,59.15,138.35,77.11,158.76,374.21,Single-ply,SBD,M
Boys,59.87,6,Micheal Lester,Mansfield Summit,56.25,133.81,74.84,163.29,371.95,Single-ply,SBD,M
Boys,59.87,7,Raul Rodriguez,Hurst Bell,57.79,140.61,86.18,129.27,356.07,Single-ply,SBD,M
Boys,59.87,8,Damian Bissant,Cedar Hill,57.06,142.88,68.04,138.35,349.27,Single-ply,SBD,M
Boys,59.87,9,Wally Garza,Everman,57.42,136.08,70.31,140.61,347,Single-ply,SBD,M
Boys,59.87,10,Caleb Waugh,Mansfield Legacy,56.97,113.4,74.84,113.4,301.64,Single-ply,SBD,M
Boys,59.87,11,Brandon Green,Mansfield Timberview,59.42,106.59,49.9,127.01,283.5,Single-ply,SBD,M
Boys,67.13,1,Vinson Sellars,Midlothian,62.51,210.92,108.86,208.65,528.44,Single-ply,SBD,M
Boys,67.13,2,Jacob Head,Bishop Lynch,65.32,226.8,106.59,195.04,528.44,Single-ply,SBD,M
Boys,67.13,3,John Wrenn,Bishop Lynch,64.77,197.31,111.13,181.44,489.88,Single-ply,SBD,M
Boys,67.13,4,Larron Black,Mansfield Summit,64.95,151.95,83.91,197.31,433.18,Single-ply,SBD,M
Boys,67.13,5,Jafus Johnson,Cedar Hill,67.04,165.56,95.25,172.37,433.18,Single-ply,SBD,M
Boys,67.13,6,Cameron Johns,South Grand Prairie,66.59,165.56,108.86,154.22,428.64,Single-ply,SBD,M
Boys,67.13,7,Drew Patterson,South Grand Prairie,67.13,165.56,92.99,165.56,424.11,Single-ply,SBD,M
Boys,67.13,8,Fouad Ali,Kennedale,61.6,138.35,92.99,172.37,403.7,Single-ply,SBD,M
Boys,67.13,9,Yousef Muwaquet,Waxahachie,62.41,145.15,102.06,156.49,403.7,Single-ply,SBD,M
Boys,67.13,10,Jake Cook,Mansfield,61.78,151.95,88.45,154.22,394.63,Single-ply,SBD,M
Boys,67.13,11,Matt Jones #5,Mansfield,66.77,133.81,92.99,154.22,381.02,Single-ply,SBD,M
Boys,67.13,12,Jay Barton,Hurst Bell,60.69,140.61,86.18,145.15,371.95,Single-ply,SBD,M
Boys,67.13,13,Tyler Hunter,Kennedale,61.87,136.08,79.38,145.15,360.61,Single-ply,SBD,M
Boys,67.13,14,Jakob Windsor,Midlothian,67.04,120.2,95.25,136.08,351.53,Single-ply,SBD,M
Boys,67.13,15,Dempsey Duprie,Midlothian,60.96,136.08,72.57,140.61,349.27,Single-ply,SBD,M
Boys,67.13,16,David Brown #12,Hurst Bell,66.22,106.59,102.06,140.61,349.27,Single-ply,SBD,M
Boys,67.13,17,Anthony Smith #6,Mansfield Timberview,64.86,122.47,79.38,124.74,326.59,Single-ply,SBD,M
Boys,67.13,18,Dorian Sims,Mansfield Legacy,63.96,127.01,,,127.01,Single-ply,S,M
Boys,67.13,DQ,Cooper Townsley,Oakridge School,67.13,,,,,Single-ply,S,M
Boys,67.13,DQ,Trey Williams,Kennedale,66.5,,,,,Single-ply,S,M
Boys,67.13,DQ,David Carter #3,Everman,66.68,199.58,,,,Single-ply,S,M
Boys,74.84,1,Dashune Barlow,Cedar Hill,71.12,185.97,97.52,249.48,532.97,Single-ply,SBD,M
Boys,74.84,2,Tarik Crear,Cedar Hill,72.21,199.58,108.86,199.58,508.02,Single-ply,SBD,M
Boys,74.84,3,Ace Clear,Bishop Lynch,73.39,195.04,102.06,199.58,496.68,Single-ply,SBD,M
Boys,74.84,4,Victor Gonzales,Midlothian,74.57,183.7,113.4,195.04,492.15,Single-ply,SBD,M
Boys,74.84,5,Josh Pintoja,Bishop Lynch,71.94,181.44,81.65,204.12,467.2,Single-ply,SBD,M
Boys,74.84,6,Lucas D'Agostino,Oakridge School,73.75,183.7,90.72,185.97,460.4,Single-ply,SBD,M
Boys,74.84,7,James Toh,Hurst Bell,73.39,172.37,102.06,181.44,455.86,Single-ply,SBD,M
Boys,74.84,8,Lorenzo Fletcher,South Grand Prairie,74.57,161.03,104.33,188.24,453.59,Single-ply,SBD,M
Boys,74.84,9,Lightfoot Essix,Everman,74.48,190.51,102.06,158.76,451.32,Single-ply,SBD,M
Boys,74.84,10,Marquentin Grant,South Grand Prairie,72.85,181.44,102.06,161.03,444.52,Single-ply,SBD,M
Boys,74.84,11,Brayden Frank,Oakridge School,67.86,163.29,95.25,165.56,424.11,Single-ply,SBD,M
Boys,74.84,12,Richard Akinwale,Mansfield,73.48,156.49,102.06,161.03,419.57,Single-ply,SBD,M
Boys,74.84,13,Tyler Hadaway,Joshua,73.75,151.95,90.72,156.49,399.16,Single-ply,SBD,M
Boys,74.84,14,Matthew O'Brian,Mansfield Timberview,72.57,142.88,92.99,158.76,394.63,Single-ply,SBD,M
Boys,74.84,15,Colin Radford,Joshua,71.12,133.81,95.25,161.03,390.09,Single-ply,SBD,M
Boys,82.1,16,Travonte Wheaton,Duncanville,74.93,147.42,106.59,136.08,390.09,Single-ply,SBD,M
Boys,74.84,17,Adrian Adalpe,Midlothian,73.75,120.2,79.38,183.7,383.29,Single-ply,SBD,M
Boys,74.84,18,De'Andre Miller,Mansfield Timberview,73.48,129.27,74.84,154.22,358.34,Single-ply,SBD,M
Boys,74.84,19,Tracy Walker,Mansfield Timberview,69.58,136.08,83.91,136.08,356.07,Single-ply,SBD,M
Boys,74.84,20,Tyler Wawrzynski,Mansfield Legacy,71.49,129.27,72.57,136.08,337.93,Single-ply,SBD,M
Boys,74.84,21,Malik Greer,Everman,71.85,120.2,72.57,136.08,328.85,Single-ply,SBD,M
Boys,82.1,22,Austin Schaffer,Oakridge School,74.93,92.99,61.23,140.61,294.84,Single-ply,SBD,M
Boys,74.84,DQ,Shea Smith,Hurst Bell,74.84,,,,,Single-ply,SBD,M
Boys,74.84,DQ,Wilbert Pressley,South Grand Prairie,74.84,,,,,Single-ply,SBD,M
Boys,74.84,DQ,Jt Ibe,Mansfield,67.68,151.95,,,,Single-ply,SBD,M
Boys,74.84,DQ,Trei Petrie,Kennedale,72.3,167.83,,,,Single-ply,SBD,M
Boys,82.1,1,Jerrod King,Midlothian,80.92,213.19,133.81,219.99,566.99,Single-ply,SBD,M
Boys,82.1,2,Grant von Wellsheim,Oakridge School,80.65,190.51,124.74,226.8,542.04,Single-ply,SBD,M
Boys,82.1,3,Eddie Smith,South Grand Prairie,80.01,190.51,120.2,208.65,519.36,Single-ply,SBD,M
Boys,82.1,4,Justin Seeton,Midlothian,77.93,195.04,108.86,208.65,512.56,Single-ply,SBD,M
Boys,82.1,5,Brendan Lavergne,Mansfield Summit,76.93,181.44,111.13,215.46,508.02,Single-ply,SBD,M
Boys,82.1,6,Brandon Allen #3,Mansfield Summit,75.21,158.76,124.74,219.99,503.49,Single-ply,SBD,M
Boys,82.1,7,Tremayne Green,Mansfield,79.29,174.63,133.81,190.51,498.95,Single-ply,SBD,M
Boys,82.1,8,Cameron Bausley,Red Oak,75.66,195.04,106.59,192.78,494.42,Single-ply,SBD,M
Boys,82.1,9,Matthew Nieman,Mansfield Legacy,77.29,192.78,113.4,183.7,489.88,Single-ply,SBD,M
Boys,82.1,10,Xzavier Beacham,Mansfield Summit,80.92,163.29,108.86,204.12,476.27,Single-ply,SBD,M
Boys,82.1,11,KJ Evans,Joshua,79.2,174.63,111.13,185.97,471.74,Single-ply,SBD,M
Boys,82.1,12,Marcus Lattimore,Mansfield Legacy,77.38,156.49,129.27,181.44,467.2,Single-ply,SBD,M
Boys,82.1,13,Zach Worthington,Mansfield Legacy,79.02,165.56,113.4,158.76,437.72,Single-ply,SBD,M
Boys,82.1,14,Ramizes Norris,Everman,80.1,156.49,86.18,192.78,435.45,Single-ply,SBD,M
Boys,82.1,15,Cameron Bundy,Kennedale,77.93,154.22,99.79,170.1,424.11,Single-ply,SBD,M
Boys,82.1,16,Tyler Killberg,Everman,75.21,113.4,74.84,181.44,369.68,Single-ply,SBD,M
Boys,82.1,17,Domingo Fuentes,Everman,79.02,136.08,68.04,154.22,358.34,Single-ply,SBD,M
Boys,82.1,18,Ben Bryant,Joshua,75.52,133.81,74.84,138.35,347,Single-ply,SBD,M
Boys,82.1,19,Collin Conway,Oakridge School,78.02,108.86,65.77,149.69,324.32,Single-ply,SBD,M
Boys,89.81,1,Stratford Washington,Cedar Hill,88.09,238.14,142.88,226.8,607.81,Single-ply,SBD,M
Boys,89.81,2,Nick Krakosky,Bishop Lynch,83.91,233.6,127.01,226.8,587.4,Single-ply,SBD,M
Boys,89.81,3,Michael Adefolarin,Mansfield Timberview,85.55,197.31,120.2,204.12,521.63,Single-ply,SBD,M
Boys,89.81,4,Marc Blades,Mansfield Summit,88.36,188.24,129.27,201.85,519.36,Single-ply,SBD,M
Boys,99.79,5,Quinton Slaughter,Red Oak,89.99,188.24,111.13,195.04,494.42,Single-ply,SBD,M
Boys,89.81,6,Derrick Ndede,Mansfield Legacy,86.91,192.78,120.2,176.9,489.88,Single-ply,SBD,M
Boys,89.81,7,Josh Whitworth,Joshua,85.05,165.56,111.13,204.12,480.81,Single-ply,SBD,M
Boys,89.81,8,Lafayette Noble,Red Oak,84.73,176.9,102.06,197.31,476.27,Single-ply,SBD,M
Boys,89.81,9,Samuel Amaka,Mansfield Timberview,86.91,185.97,95.25,183.7,464.93,Single-ply,SBD,M
Boys,89.81,10,Kyle McCommas,Midlothian,88.9,165.56,104.33,176.9,446.79,Single-ply,SBD,M
Boys,89.81,11,Ben Blakely,Red Oak,84.73,151.95,106.59,167.83,426.38,Single-ply,SBD,M
Boys,89.81,12,Andrew Young #3,Joshua,83.19,147.42,79.38,158.76,385.55,Single-ply,SBD,M
Boys,89.81,13,Pedro Torrez,Joshua,87.18,138.35,83.91,124.74,347,Single-ply,SBD,M
Boys,89.81,DQ,Chirs Roberts,Cedar Hill,88,,,,,Single-ply,SBD,M
Boys,89.81,DQ,Daniel Ambriz,Everman,82.46,129.27,,,,Single-ply,SBD,M
Boys,99.79,1,Bryan Randall,Waxahachie,96.43,235.87,163.29,244.94,644.1,Single-ply,SBD,M
Boys,99.79,2,Darius Stubblefield,Cedar Hill,97.52,210.92,156.49,238.14,605.55,Single-ply,SBD,M
Boys,99.79,3,Kentrell Joyner,Mansfield,97.34,224.53,131.54,235.87,591.94,Single-ply,SBD,M
Boys,99.79,4,Calen Johnson,Cedar Hill,91.35,219.99,136.08,226.8,582.87,Single-ply,SBD,M
Boys,99.79,5,Cedric Shaw,Everman,90.63,238.14,122.47,219.99,580.6,Single-ply,SBD,M
Boys,99.79,6,Brett Wade,Kennedale,91.76,217.72,131.54,229.06,578.33,Single-ply,SBD,M
Boys,99.79,7,Rene Garcia,Waxahachie,98.97,226.8,142.88,190.51,560.19,Single-ply,SBD,M
Boys,99.79,8,Rico Coloso,Bishop Lynch,94.98,208.65,127.01,219.99,555.65,Single-ply,SBD,M
Boys,99.79,9,Dub Ingram,Mansfield Legacy,95.89,213.19,145.15,190.51,548.85,Single-ply,SBD,M
Boys,99.79,10,Koltyn Davis,Kennedale,93.98,204.12,115.67,213.19,532.97,Single-ply,SBD,M
Boys,99.79,11,Cayn Miller,Midlothian,90.72,195.04,106.59,206.38,508.02,Single-ply,SBD,M
Boys,99.79,12,Chris Meno,Mansfield Legacy,97.34,204.12,108.86,195.04,508.02,Single-ply,SBD,M
Boys,99.79,13,Jordan Anderson #6,South Grand Prairie,96.62,165.56,124.74,215.46,505.76,Single-ply,SBD,M
Boys,99.79,14,Cameron Salley,Hurst Bell,91.81,199.58,113.4,179.17,492.15,Single-ply,SBD,M
Boys,109.77,15,Gerry Gallimore,Duncanville,99.88,201.85,97.52,163.29,462.66,Single-ply,SBD,M
Boys,99.79,16,Tony Kirk,Midlothian,93.62,158.76,106.59,183.7,449.06,Single-ply,SBD,M
Boys,99.79,17,Stetson Kinnison,Waxahachie,99.16,147.42,111.13,174.63,433.18,Single-ply,SBD,M
Boys,99.79,18,Grant Johnson,Oakridge School,95.98,165.56,83.91,165.56,415.04,Single-ply,SBD,M
Boys,99.79,19,Cruz Marquez,Joshua,96.98,156.49,88.45,170.1,415.04,Single-ply,SBD,M
Boys,99.79,20,Branden Hunt,South Grand Prairie,98.25,147.42,104.33,151.95,403.7,Single-ply,SBD,M
Boys,99.79,21,Alex Dolabi,Oakridge School,96.25,122.47,77.11,136.08,335.66,Single-ply,SBD,M
Boys,99.79,22,Kagan Jones,Everman,90.81,106.59,74.84,127.01,308.44,Single-ply,SBD,M
Boys,99.79,DQ,Jarrad House,Hurst Bell,95.98,,,,,Single-ply,SBD,M
Boys,99.79,DQ,Jack St Gernain,Hurst Bell,99.79,,,,,Single-ply,SBD,M
Boys,99.79,DQ,James Legrand,Everman,92.99,,,,,Single-ply,SBD,M
Boys,99.79,DQ,Chris McCoy,Mansfield Timberview,97.07,192.78,111.13,,,Single-ply,SBD,M
Boys,109.77,1,Alex Fritz,Haltom City Haltom,104.33,272.16,174.63,249.48,696.26,Single-ply,SBD,M
Boys,109.77,2,Paul Cox,Everman,102.97,231.33,142.88,219.99,594.21,Single-ply,SBD,M
Boys,109.77,3,Dustin Upchurch,Waxahachie,109.23,244.94,131.54,213.19,589.67,Single-ply,SBD,M
Boys,109.77,4,Hunter Graham,Mansfield,107.14,226.8,151.95,183.7,562.45,Single-ply,SBD,M
Boys,109.77,5,Nef Pabon,Hurst Bell,105.87,199.58,142.88,208.65,551.11,Single-ply,SBD,M
Boys,109.77,6,Sam Jenkins,Red Oak,109.59,206.38,149.69,195.04,551.11,Single-ply,SBD,M
Boys,109.77,7,Glaedis Kalengayi,Hurst Bell,106.5,224.53,124.74,190.51,539.77,Single-ply,SBD,M
Boys,109.77,8,Malcolm Carpenter,Mansfield Summit,107.41,215.46,120.2,192.78,528.44,Single-ply,SBD,M
Boys,109.77,9,Thomas Marek,Red Oak,105.6,195.04,117.93,195.04,508.02,Single-ply,SBD,M
Boys,109.77,10,Ryan Tharp,Hurst Bell,101.15,185.97,136.08,176.9,498.95,Single-ply,SBD,M
Boys,109.77,11,Torey Morrison,Duncanville,100.33,190.51,117.93,183.7,492.15,Single-ply,SBD,M
Boys,109.77,12,Mike Rinehart,Bishop Lynch,101.15,170.1,106.59,213.19,489.88,Single-ply,SBD,M
Boys,109.77,13,Terrell Charleston,South Grand Prairie,108.32,174.63,111.13,204.12,489.88,Single-ply,SBD,M
Boys,109.77,14,Dylan Johnson #3,Red Oak,100.24,192.78,111.13,170.1,474,Single-ply,SBD,M
Boys,109.77,15,Dereck Herenda,Mansfield Timberview,108.68,190.51,108.86,158.76,458.13,Single-ply,SBD,M
Boys,109.77,16,Fona Iduwe,Duncanville,106.14,190.51,106.59,147.42,444.52,Single-ply,SBD,M
Boys,109.77,17,Del Washington,Duncanville,109.13,165.56,106.59,161.03,433.18,Single-ply,SBD,M
Boys,109.77,18,Christian Flewellen,Duncanville,105.23,170.1,106.59,142.88,419.57,Single-ply,SBD,M
Boys,109.77,19,Jessie Deckard,Everman,104.96,172.37,97.52,136.08,405.97,Single-ply,SBD,M
Boys,109.77,20,Lionel Bellazin,Everman,108.68,147.42,90.72,138.35,376.48,Single-ply,SBD,M
Boys,109.77,DQ,Rene Lawson,Mansfield Timberview,105.6,,,,,Single-ply,SBD,M
Boys,109.77,DQ,Payne Pitman,Oakridge School,109.77,,,,,Single-ply,SBD,M
Boys,109.77,DQ,Hagan Stone,Midlothian,108.86,170.1,111.13,,,Single-ply,SBD,M
Boys,124.74,1,Heath LeMoine,Midlothian,122.74,288.03,174.63,210.92,673.58,Single-ply,SBD,M
Boys,124.74,2,Ben Davis #4,Waxahachie,115.58,256.28,129.27,235.87,621.42,Single-ply,SBD,M
Boys,124.74,3,Diego Mejia,Everman,117.48,249.48,115.67,219.99,585.13,Single-ply,SBD,M
Boys,124.74,4,Josh Fisher,Red Oak,118.84,229.06,136.08,204.12,569.26,Single-ply,SBD,M
Boys,124.74,5,Chad Whitener,Mansfield,110.22,190.51,142.88,206.38,539.77,Single-ply,SBD,M
Boys,124.74,6,Vinny Wurst,Bishop Lynch,116.57,226.8,113.4,199.58,539.77,Single-ply,SBD,M
Boys,124.74,7,Anthony Zapata,Everman,115.21,217.72,99.79,204.12,521.63,Single-ply,SBD,M
Boys,124.74,8,Bo Keane,Bishop Lynch,114.76,195.04,97.52,217.72,510.29,Single-ply,SBD,M
Boys,124.74,9,Austin McCord,Joshua,115.12,170.1,111.13,190.51,471.74,Single-ply,SBD,M
Boys,124.74,10,Steven Patton,Red Oak,124.56,172.37,104.33,181.44,458.13,Single-ply,SBD,M
Boys,124.74,11,Klein Allen,Duncanville,112.49,170.1,111.13,149.69,430.91,Single-ply,SBD,M
Boys,124.74+,1,Bobby Romero,Everman,147.69,294.84,158.76,249.48,703.07,Single-ply,SBD,M
Boys,124.74+,2,Fred Gipson,Everman,126.92,258.55,185.97,208.65,653.17,Single-ply,SBD,M
Boys,124.74+,3,Marcel McDowell,Mansfield Legacy,135.17,249.48,149.69,206.38,605.55,Single-ply,SBD,M
Boys,124.74+,4,Jimmy Miller,Mansfield Summit,173.73,233.6,138.35,222.26,594.21,Single-ply,SBD,M
Boys,124.74+,5,Nick Trieger,Bishop Lynch,137.44,208.65,147.42,195.04,551.11,Single-ply,SBD,M
Boys,124.74+,6,Zeke Clerk,Red Oak,138.8,206.38,145.15,179.17,530.7,Single-ply,SBD,M
Boys,124.74+,7,Kyle Green,Joshua,150.96,204.12,140.61,183.7,528.44,Single-ply,SBD,M
Boys,124.74+,8,Colten Pena,Joshua,152.41,188.24,147.42,183.7,519.36,Single-ply,SBD,M
Boys,124.74+,9,Nathan Brown,Kennedale,127.91,181.44,111.13,183.7,476.27,Single-ply,SBD,M
Boys,124.74+,10,Jeff Reynolds,Midlothian,134.26,179.17,120.2,170.1,469.47,Single-ply,SBD,M
Boys,124.74+,11,Jamaal Fears,Duncanville,131.36,147.42,127.01,170.1,444.52,Single-ply,SBD,M
Boys,124.74+,12,Dillion Muns,South Grand Prairie,128.28,158.76,113.4,165.56,437.72,Single-ply,SBD,M
Boys,124.74+,DQ,Gennard Johnson,Waxahachie,139.25,,,,,Single-ply,SBD,M
Boys,124.74+,DQ,Aaren Evans,Duncanville,127.82,,,,,Single-ply,SBD,M
